 ___          _           _   _          
| __|_ ____ _| |_  _ __ _| |_(_)___ _ _  
| _|\ V / _` | | || / _` |  _| / _ \ ' \ 
|___|\_/\__,_|_|\_,_\__,_|\__|_\___/_||_|
                                         
